…
    ## Rows: 35 Columns: 1443
    ## ── Column specification ────────────────────────────────────────────────────────
    ## Delimiter: ","
    ## chr    (1): day
    ## dbl (1442): week, day_id, activity.1, activity.2, activity.3, activity.4, ac...
    ## 
    ## ℹ Use `spec()` to retrieve the full column specification for this data.
    ## ℹ Specify the column types or set `show_col_types = FALSE` to quiet this message.

``` r
accelerometer_data
```

    ## # A tibble: 50,400 × 6
    ##     week day_id day    minute activity_count weekday_vs_weekend
    ##    <dbl>  <dbl> <fct>   <dbl>          <dbl> <chr>             
    ##  1     1      1 Friday      1           88.4 Weekday           
    ##  2     1      1 Friday      2           82.2 Weekday           
    ##  3     1      1 Friday      3           64.4 Weekday           
    ##  4     1      1 Friday      4           70.0 Weekday           
    ##  5     1      1 Friday      5           75.0 Weekday           
    ##  6     1      1 Friday      6           66.3 Weekday           
    ##  7     1      1 Friday      7           53.8 Weekday           
    ##  8     1      1 Friday      8           47.8 Weekday           
    ##  9     1      1 Friday      9           55.5 Weekday           
    ## 10     1      1 Friday     10           43.0 Weekday           
    ## # … with 50,390 more rows
…
ny_noaa_tidy
```

    ## # A tibble: 2,595,176 × 9
    ##    id           year month   day  prcp  snow  snwd  tmax  tmin
    ##    <chr>       <dbl> <dbl> <dbl> <dbl> <int> <int> <dbl> <dbl>
    ##  1 US1NYAB0001  2007    11     1    NA    NA    NA    NA    NA
    ##  2 US1NYAB0001  2007    11     2    NA    NA    NA    NA    NA
    ##  3 US1NYAB0001  2007    11     3    NA    NA    NA    NA    NA
    ##  4 US1NYAB0001  2007    11     4    NA    NA    NA    NA    NA
    ##  5 US1NYAB0001  2007    11     5    NA    NA    NA    NA    NA
    ##  6 US1NYAB0001  2007    11     6    NA    NA    NA    NA    NA
    ##  7 US1NYAB0001  2007    11     7    NA    NA    NA    NA    NA
    ##  8 US1NYAB0001  2007    11     8    NA    NA    NA    NA    NA
    ##  9 US1NYAB0001  2007    11     9    NA    NA    NA    NA    NA
    ## 10 US1NYAB0001  2007    11    10    NA    NA    NA    NA    NA
    ## # … with 2,595,166 more rows

``` r
ny_noaa_snow = 
  ny_noaa_tidy %>%
  count(snow) %>%
  arrange(desc(n))

ny_noaa_snow
```

    ## # A tibble: 282 × 2
    ##     snow       n
    ##    <int>   <int>
    ##  1     0 2008508
    ##  2    NA  381221
    ##  3    25   31022
    ##  4    13   23095
    ##  5    51   18274
    ##  6    76   10173
    ##  7     8    9962
    ##  8     5    9748
    ##  9    38    9197
    ## 10     3    8790
    ## # … with 272 more rows
…
